solid OpenSCAD_Model
  facet normal 1 -0 0
    outer loop
      vertex 7.2365 0 27.2
      vertex 7.2365 34.035 25
      vertex 7.2365 34.035 27.2
    endloop
  endfacet
  facet normal 1 0 0
    outer loop
      vertex 7.2365 34.035 25
      vertex 7.2365 0 27.2
      vertex 7.2365 0 25
    endloop
  endfacet
  facet normal 0 0 -1
    outer loop
      vertex 7.2375 0 27.2
      vertex 7.2365 0 27.2
      vertex 7.2375 2.998 27.2
    endloop
  endfacet
  facet normal 0 0 -1
    outer loop
      vertex 8.2365 2.998 27.2
      vertex 7.2375 2.998 27.2
      vertex 8.2365 30.034 27.2
    endloop
  endfacet
  facet normal 0 0 -1
    outer loop
      vertex 32.1445 30.034 27.2
      vertex 33.1445 2.998 27.2
      vertex 32.1445 2.998 27.2
    endloop
  endfacet
  facet normal 0 0 -1
    outer loop
      vertex 33.1445 2.998 27.2
      vertex 32.1445 30.034 27.2
      vertex 33.1445 34.035 27.2
    endloop
  endfacet
  facet normal 0 0 -1
    outer loop
      vertex 8.2365 30.034 27.2
      vertex 33.1445 34.035 27.2
      vertex 32.1445 30.034 27.2
    endloop
  endfacet
  facet normal 0 0 -1
    outer loop
      vertex 8.2365 30.034 27.2
      vertex 7.2365 34.035 27.2
      vertex 33.1445 34.035 27.2
    endloop
  endfacet
  facet normal 0 0 -1
    outer loop
      vertex 7.2375 2.998 27.2
      vertex 7.2365 34.035 27.2
      vertex 8.2365 30.034 27.2
    endloop
  endfacet
  facet normal 0 0 -1
    outer loop
      vertex 7.2365 34.035 27.2
      vertex 7.2375 2.998 27.2
      vertex 7.2365 0 27.2
    endloop
  endfacet
  facet normal -1 0 0
    outer loop
      vertex 33.1445 2.998 25
      vertex 33.1445 34.035 27.2
      vertex 33.1445 34.035 25
    endloop
  endfacet
  facet normal -1 -0 0
    outer loop
      vertex 33.1445 34.035 27.2
      vertex 33.1445 2.998 25
      vertex 33.1445 2.998 27.2
    endloop
  endfacet
  facet normal 0 -1 0
    outer loop
      vertex 7.2365 34.035 25
      vertex 33.1445 34.035 27.2
      vertex 7.2365 34.035 27.2
    endloop
  endfacet
  facet normal 0 -1 -0
    outer loop
      vertex 33.1445 34.035 27.2
      vertex 7.2365 34.035 25
      vertex 33.1445 34.035 25
    endloop
  endfacet
  facet normal 0 0 1
    outer loop
      vertex 33.1445 34.035 25
      vertex 30.1905 34.034 25
      vertex 33.1445 2.998 25
    endloop
  endfacet
  facet normal 0 0 1
    outer loop
      vertex 33.1445 34.035 25
      vertex 10.1905 34.034 25
      vertex 30.1905 34.034 25
    endloop
  endfacet
  facet normal 0 0 1
    outer loop
      vertex 10.1905 34.034 25
      vertex 7.2375 2.998 25
      vertex 10.1905 2.998 25
    endloop
  endfacet
  facet normal -0 0 1
    outer loop
      vertex 7.2365 34.035 25
      vertex 10.1905 34.034 25
      vertex 33.1445 34.035 25
    endloop
  endfacet
  facet normal 0 0 1
    outer loop
      vertex 7.2365 34.035 25
      vertex 7.2375 2.998 25
      vertex 10.1905 34.034 25
    endloop
  endfacet
  facet normal 0 0 1
    outer loop
      vertex 7.2365 0 25
      vertex 7.2375 2.998 25
      vertex 7.2365 34.035 25
    endloop
  endfacet
  facet normal 0 0 1
    outer loop
      vertex 7.2375 2.998 25
      vertex 7.2365 0 25
      vertex 7.2375 0 25
    endloop
  endfacet
  facet normal 0 0 1
    outer loop
      vertex 33.1445 2.998 25
      vertex 30.1905 34.034 25
      vertex 30.1905 2.998 25
    endloop
  endfacet
  facet normal 1 0 0
    outer loop
      vertex 8.2365 30.034 28.201
      vertex 8.2365 2.998 28
      vertex 8.2365 30.034 27.2
    endloop
  endfacet
  facet normal 1 -0 0
    outer loop
      vertex 8.2365 0 28.201
      vertex 8.2365 2.998 28
      vertex 8.2365 30.034 28.201
    endloop
  endfacet
  facet normal 1 0 0
    outer loop
      vertex 8.2365 2.998 28
      vertex 8.2365 0 28.201
      vertex 8.2365 0 28
    endloop
  endfacet
  facet normal 1 0 0
    outer loop
      vertex 8.2365 30.034 27.2
      vertex 8.2365 2.998 28
      vertex 8.2365 2.998 27.2
    endloop
  endfacet
  facet normal 0 0 -1
    outer loop
      vertex 10.2365 0 28.201
      vertex 8.2365 0 28.201
      vertex 10.2365 25.998 28.201
    endloop
  endfacet
  facet normal 0 0 -1
    outer loop
      vertex 27.2365 25.998 28.201
      vertex 32.1445 0 28.201
      vertex 27.2365 0 28.201
    endloop
  endfacet
  facet normal 0 0 -1
    outer loop
      vertex 32.1445 0 28.201
      vertex 27.2365 25.998 28.201
      vertex 32.1445 30.034 28.201
    endloop
  endfacet
  facet normal 0 0 -1
    outer loop
      vertex 8.2365 30.034 28.201
      vertex 27.2365 25.998 28.201
      vertex 10.2365 25.998 28.201
    endloop
  endfacet
  facet normal 0 0 -1
    outer loop
      vertex 27.2365 25.998 28.201
      vertex 8.2365 30.034 28.201
      vertex 32.1445 30.034 28.201
    endloop
  endfacet
  facet normal 0 0 -1
    outer loop
      vertex 8.2365 30.034 28.201
      vertex 10.2365 25.998 28.201
      vertex 8.2365 0 28.201
    endloop
  endfacet
  facet normal -1 0 0
    outer loop
      vertex 32.1445 2.998 27.2
      vertex 32.1445 30.034 28.201
      vertex 32.1445 30.034 27.2
    endloop
  endfacet
  facet normal -1 0 0
    outer loop
      vertex 32.1445 2.998 28
      vertex 32.1445 30.034 28.201
      vertex 32.1445 2.998 27.2
    endloop
  endfacet
  facet normal -1 0 0
    outer loop
      vertex 32.1445 0 28.201
      vertex 32.1445 2.998 28
      vertex 32.1445 0 28
    endloop
  endfacet
  facet normal -1 0 0
    outer loop
      vertex 32.1445 2.998 28
      vertex 32.1445 0 28.201
      vertex 32.1445 30.034 28.201
    endloop
  endfacet
  facet normal 0 -1 0
    outer loop
      vertex 8.2365 30.034 27.2
      vertex 32.1445 30.034 28.201
      vertex 8.2365 30.034 28.201
    endloop
  endfacet
  facet normal 0 -1 -0
    outer loop
      vertex 32.1445 30.034 28.201
      vertex 8.2365 30.034 27.2
      vertex 32.1445 30.034 27.2
    endloop
  endfacet
  facet normal 1 -0 0
    outer loop
      vertex 10.2365 0 30
      vertex 10.2365 25.998 28.201
      vertex 10.2365 25.998 30
    endloop
  endfacet
  facet normal 1 0 0
    outer loop
      vertex 10.2365 25.998 28.201
      vertex 10.2365 0 30
      vertex 10.2365 0 28.201
    endloop
  endfacet
  facet normal -1 0 0
    outer loop
      vertex 27.2365 0 28.201
      vertex 27.2365 25.998 30
      vertex 27.2365 25.998 28.201
    endloop
  endfacet
  facet normal -1 -0 0
    outer loop
      vertex 27.2365 25.998 30
      vertex 27.2365 0 28.201
      vertex 27.2365 0 30
    endloop
  endfacet
  facet normal 0 -1 0
    outer loop
      vertex 10.2365 25.998 28.201
      vertex 27.2365 25.998 30
      vertex 10.2365 25.998 30
    endloop
  endfacet
  facet normal 0 -1 -0
    outer loop
      vertex 27.2365 25.998 30
      vertex 10.2365 25.998 28.201
      vertex 27.2365 25.998 28.201
    endloop
  endfacet
  facet normal 1 0 0
    outer loop
      vertex 10.1905 2.998 22
      vertex 10.1905 34.034 25
      vertex 10.1905 2.998 25
    endloop
  endfacet
  facet normal 1 0 0
    outer loop
      vertex 10.1905 34.034 25
      vertex 10.1905 2.998 22
      vertex 10.1905 34.034 21.501
    endloop
  endfacet
  facet normal 1 0 0
    outer loop
      vertex 10.1905 0 21.501
      vertex 10.1905 2.998 22
      vertex 10.1905 0 22
    endloop
  endfacet
  facet normal 1 0 0
    outer loop
      vertex 10.1905 2.998 22
      vertex 10.1905 0 21.501
      vertex 10.1905 34.034 21.501
    endloop
  endfacet
  facet normal -1 0 0
    outer loop
      vertex 30.1905 34.034 21.501
      vertex 30.1905 2.998 22
      vertex 30.1905 34.034 25
    endloop
  endfacet
  facet normal -1 0 0
    outer loop
      vertex 30.1905 0 21.501
      vertex 30.1905 2.998 22
      vertex 30.1905 34.034 21.501
    endloop
  endfacet
  facet normal -1 -0 0
    outer loop
      vertex 30.1905 2.998 22
      vertex 30.1905 0 21.501
      vertex 30.1905 0 22
    endloop
  endfacet
  facet normal -1 -0 0
    outer loop
      vertex 30.1905 34.034 25
      vertex 30.1905 2.998 22
      vertex 30.1905 2.998 25
    endloop
  endfacet
  facet normal 0 -1 0
    outer loop
      vertex 10.1905 34.034 21.501
      vertex 30.1905 34.034 25
      vertex 10.1905 34.034 25
    endloop
  endfacet
  facet normal 0 -1 -0
    outer loop
      vertex 30.1905 34.034 25
      vertex 10.1905 34.034 21.501
      vertex 30.1905 34.034 21.501
    endloop
  endfacet
  facet normal -0 0 1
    outer loop
      vertex 10.1905 34.034 21.501
      vertex 30.1905 0 21.501
      vertex 30.1905 34.034 21.501
    endloop
  endfacet
  facet normal 0 0 1
    outer loop
      vertex 30.1905 0 21.501
      vertex 10.1905 34.034 21.501
      vertex 10.1905 0 21.501
    endloop
  endfacet
  facet normal 1 -0 0
    outer loop
      vertex 7.2375 0 25
      vertex 7.2375 2.998 22
      vertex 7.2375 2.998 25
    endloop
  endfacet
  facet normal 1 0 0
    outer loop
      vertex 7.2375 2.998 22
      vertex 7.2375 0 25
      vertex 7.2375 0 22
    endloop
  endfacet
  facet normal 1 -0 0
    outer loop
      vertex 7.2375 0 28
      vertex 7.2375 2.998 27.2
      vertex 7.2375 2.998 28
    endloop
  endfacet
  facet normal 1 0 0
    outer loop
      vertex 7.2375 2.998 27.2
      vertex 7.2375 0 28
      vertex 7.2375 0 27.2
    endloop
  endfacet
  facet normal 0 0 -1
    outer loop
      vertex 7.2375 0 28
      vertex 8.2365 2.998 28
      vertex 8.2365 0 28
    endloop
  endfacet
  facet normal -0 0 -1
    outer loop
      vertex 8.2365 2.998 28
      vertex 7.2375 0 28
      vertex 7.2375 2.998 28
    endloop
  endfacet
  facet normal 0 0 -1
    outer loop
      vertex 32.1445 0 28
      vertex 33.1455 2.998 28
      vertex 33.1455 0 28
    endloop
  endfacet
  facet normal -0 0 -1
    outer loop
      vertex 33.1455 2.998 28
      vertex 32.1445 0 28
      vertex 32.1445 2.998 28
    endloop
  endfacet
  facet normal -1 0 0
    outer loop
      vertex 33.1455 0 22
      vertex 33.1455 2.998 28
      vertex 33.1455 2.998 22
    endloop
  endfacet
  facet normal -1 -0 0
    outer loop
      vertex 33.1455 2.998 28
      vertex 33.1455 0 22
      vertex 33.1455 0 28
    endloop
  endfacet
  facet normal 0 -1 0
    outer loop
      vertex 30.1905 2.998 25
      vertex 30.1905 2.998 22
      vertex 33.1445 2.998 25
    endloop
  endfacet
  facet normal 0 -1 0
    outer loop
      vertex 32.1445 2.998 27.2
      vertex 33.1455 2.998 28
      vertex 32.1445 2.998 28
    endloop
  endfacet
  facet normal 0 -1 0
    outer loop
      vertex 33.1445 2.998 27.2
      vertex 33.1455 2.998 28
      vertex 32.1445 2.998 27.2
    endloop
  endfacet
  facet normal 0 -1 0
    outer loop
      vertex 33.1445 2.998 25
      vertex 33.1455 2.998 28
      vertex 33.1445 2.998 27.2
    endloop
  endfacet
  facet normal 0 -1 0
    outer loop
      vertex 33.1445 2.998 25
      vertex 33.1455 2.998 22
      vertex 33.1455 2.998 28
    endloop
  endfacet
  facet normal 0 -1 0
    outer loop
      vertex 33.1455 2.998 22
      vertex 33.1445 2.998 25
      vertex 30.1905 2.998 22
    endloop
  endfacet
  facet normal 0 -1 0
    outer loop
      vertex 7.2375 2.998 22
      vertex 10.1905 2.998 25
      vertex 7.2375 2.998 25
    endloop
  endfacet
  facet normal 0 -1 -0
    outer loop
      vertex 10.1905 2.998 25
      vertex 7.2375 2.998 22
      vertex 10.1905 2.998 22
    endloop
  endfacet
  facet normal 0 -1 0
    outer loop
      vertex 7.2375 2.998 27.2
      vertex 8.2365 2.998 28
      vertex 7.2375 2.998 28
    endloop
  endfacet
  facet normal 0 -1 -0
    outer loop
      vertex 8.2365 2.998 28
      vertex 7.2375 2.998 27.2
      vertex 8.2365 2.998 27.2
    endloop
  endfacet
  facet normal -0 0 1
    outer loop
      vertex 7.2375 2.998 22
      vertex 10.1905 0 22
      vertex 10.1905 2.998 22
    endloop
  endfacet
  facet normal 0 0 1
    outer loop
      vertex 10.1905 0 22
      vertex 7.2375 2.998 22
      vertex 7.2375 0 22
    endloop
  endfacet
  facet normal -0 0 1
    outer loop
      vertex 30.1905 2.998 22
      vertex 33.1455 0 22
      vertex 33.1455 2.998 22
    endloop
  endfacet
  facet normal 0 0 1
    outer loop
      vertex 33.1455 0 22
      vertex 30.1905 2.998 22
      vertex 30.1905 0 22
    endloop
  endfacet
  facet normal 1 0 0
    outer loop
      vertex 8 61.499 7.2
      vertex 8 19.998 5.001
      vertex 8 61.499 5
    endloop
  endfacet
  facet normal 1 -0 0
    outer loop
      vertex 8 0 7.2
      vertex 8 19.998 5.001
      vertex 8 61.499 7.2
    endloop
  endfacet
  facet normal 1 0 0
    outer loop
      vertex 8 19.998 5.001
      vertex 8 0 7.2
      vertex 8 0 5.001
    endloop
  endfacet
  facet normal 1 0 0
    outer loop
      vertex 8 61.499 5
      vertex 8 19.998 5.001
      vertex 8 19.998 5
    endloop
  endfacet
  facet normal 0 0 -1
    outer loop
      vertex 9 0 7.2
      vertex 8 0 7.2
      vertex 9 56.499 7.2
    endloop
  endfacet
  facet normal 0 0 -1
    outer loop
      vertex 29.5 0 7.2
      vertex 12 0 7.2
      vertex 29.5 56.499 7.2
    endloop
  endfacet
  facet normal 0 0 -1
    outer loop
      vertex 32.5 56.499 7.2
      vertex 33.5 0 7.2
      vertex 32.5 0 7.2
    endloop
  endfacet
  facet normal 0 0 -1
    outer loop
      vertex 33.5 0 7.2
      vertex 32.5 56.499 7.2
      vertex 33.5 61.499 7.2
    endloop
  endfacet
  facet normal 0 0 -1
    outer loop
      vertex 29.5 56.499 7.2
      vertex 33.5 61.499 7.2
      vertex 32.5 56.499 7.2
    endloop
  endfacet
  facet normal 0 0 -1
    outer loop
      vertex 12 56.499 7.2
      vertex 29.5 56.499 7.2
      vertex 12 0 7.2
    endloop
  endfacet
  facet normal 0 0 -1
    outer loop
      vertex 12 56.499 7.2
      vertex 33.5 61.499 7.2
      vertex 29.5 56.499 7.2
    endloop
  endfacet
  facet normal 0 0 -1
    outer loop
      vertex 8 61.499 7.2
      vertex 12 56.499 7.2
      vertex 9 56.499 7.2
    endloop
  endfacet
  facet normal 0 0 -1
    outer loop
      vertex 12 56.499 7.2
      vertex 8 61.499 7.2
      vertex 33.5 61.499 7.2
    endloop
  endfacet
  facet normal 0 0 -1
    outer loop
      vertex 8 61.499 7.2
      vertex 9 56.499 7.2
      vertex 8 0 7.2
    endloop
  endfacet
  facet normal -1 0 0
    outer loop
      vertex 33.5 0 5
      vertex 33.5 61.499 7.2
      vertex 33.5 61.499 5
    endloop
  endfacet
  facet normal -1 -0 0
    outer loop
      vertex 33.5 61.499 7.2
      vertex 33.5 0 5
      vertex 33.5 0 7.2
    endloop
  endfacet
  facet normal 0 -1 0
    outer loop
      vertex 8 61.499 7.2
      vertex 12.25 61.499 5.501
      vertex 33.5 61.499 7.2
    endloop
  endfacet
  facet normal 0 -1 0
    outer loop
      vertex 8 61.499 7.2
      vertex 11.999 61.499 5.001
      vertex 12.25 61.499 5.501
    endloop
  endfacet
  facet normal 0 -1 0
    outer loop
      vertex 8 61.499 5
      vertex 11.999 61.499 5.001
      vertex 8 61.499 7.2
    endloop
  endfacet
  facet normal 0 -1 -0
    outer loop
      vertex 11.999 61.499 5.001
      vertex 8 61.499 5
      vertex 11.999 61.499 5
    endloop
  endfacet
  facet normal 0 -1 0
    outer loop
      vertex 29.25 61.499 5.501
      vertex 33.5 61.499 7.2
      vertex 12.25 61.499 5.501
    endloop
  endfacet
  facet normal 0 -1 0
    outer loop
      vertex 29.501 61.499 5.001
      vertex 29.25 61.499 5.501
      vertex 29.25 61.499 5.001
    endloop
  endfacet
  facet normal 0 -1 0
    outer loop
      vertex 29.25 61.499 5.501
      vertex 29.501 61.499 5.001
      vertex 33.5 61.499 7.2
    endloop
  endfacet
  facet normal 0 -1 0
    outer loop
      vertex 33.5 61.499 5
      vertex 29.501 61.499 5.001
      vertex 29.501 61.499 5
    endloop
  endfacet
  facet normal 0 -1 0
    outer loop
      vertex 29.501 61.499 5.001
      vertex 33.5 61.499 5
      vertex 33.5 61.499 7.2
    endloop
  endfacet
  facet normal 0 -1 -0
    outer loop
      vertex 12.25 61.499 5.501
      vertex 11.999 61.499 5.001
      vertex 12.25 61.499 5.001
    endloop
  endfacet
  facet normal 0 0 1
    outer loop
      vertex 11.999 61.499 5
      vertex 9 56.499 5
      vertex 11.999 56.499 5
    endloop
  endfacet
  facet normal -0 0 1
    outer loop
      vertex 8 61.499 5
      vertex 9 56.499 5
      vertex 11.999 61.499 5
    endloop
  endfacet
  facet normal 0 0 1
    outer loop
      vertex 8 19.998 5
      vertex 9 56.499 5
      vertex 8 61.499 5
    endloop
  endfacet
  facet normal 0 0 1
    outer loop
      vertex 9 56.499 5
      vertex 8 19.998 5
      vertex 9 19.998 5
    endloop
  endfacet
  facet normal 0 0 1
    outer loop
      vertex 33.5 61.499 5
      vertex 32.5 56.499 5
      vertex 33.5 0 5
    endloop
  endfacet
  facet normal -0 0 1
    outer loop
      vertex 29.501 61.499 5
      vertex 32.5 56.499 5
      vertex 33.5 61.499 5
    endloop
  endfacet
  facet normal 0 0 1
    outer loop
      vertex 32.5 56.499 5
      vertex 29.501 61.499 5
      vertex 29.501 56.499 5
    endloop
  endfacet
  facet normal 0 0 1
    outer loop
      vertex 33.5 0 5
      vertex 32.5 56.499 5
      vertex 32.5 0 5
    endloop
  endfacet
  facet normal 1 0 0
    outer loop
      vertex 12.25 63.999 5.501
      vertex 12.25 61.998 5.001
      vertex 12.25 63.999 3.501
    endloop
  endfacet
  facet normal 1 -0 0
    outer loop
      vertex 12.25 61.499 5.501
      vertex 12.25 61.998 5.001
      vertex 12.25 63.999 5.501
    endloop
  endfacet
  facet normal 1 0 0
    outer loop
      vertex 12.25 61.998 5.001
      vertex 12.25 61.499 5.501
      vertex 12.25 61.499 5.001
    endloop
  endfacet
  facet normal 1 0 0
    outer loop
      vertex 12.25 63.999 3.501
      vertex 12.25 61.998 5.001
      vertex 12.25 61.998 3.501
    endloop
  endfacet
  facet normal 0 0 -1
    outer loop
      vertex 12.25 61.499 5.501
      vertex 29.25 63.999 5.501
      vertex 29.25 61.499 5.501
    endloop
  endfacet
  facet normal -0 0 -1
    outer loop
      vertex 29.25 63.999 5.501
      vertex 12.25 61.499 5.501
      vertex 12.25 63.999 5.501
    endloop
  endfacet
  facet normal -1 0 0
    outer loop
      vertex 29.25 61.998 5.001
      vertex 29.25 63.999 3.501
      vertex 29.25 61.998 3.501
    endloop
  endfacet
  facet normal -1 0 0
    outer loop
      vertex 29.25 63.999 3.501
      vertex 29.25 61.998 5.001
      vertex 29.25 63.999 5.501
    endloop
  endfacet
  facet normal -1 0 0
    outer loop
      vertex 29.25 61.499 5.501
      vertex 29.25 61.998 5.001
      vertex 29.25 61.499 5.001
    endloop
  endfacet
  facet normal -1 0 0
    outer loop
      vertex 29.25 61.998 5.001
      vertex 29.25 61.499 5.501
      vertex 29.25 63.999 5.501
    endloop
  endfacet
  facet normal 0 -1 0
    outer loop
      vertex 12.25 63.999 3.501
      vertex 29.25 63.999 5.501
      vertex 12.25 63.999 5.501
    endloop
  endfacet
  facet normal 0 -1 -0
    outer loop
      vertex 29.25 63.999 5.501
      vertex 12.25 63.999 3.501
      vertex 29.25 63.999 3.501
    endloop
  endfacet
  facet normal -0 0 1
    outer loop
      vertex 12.25 63.999 3.501
      vertex 29.25 61.998 3.501
      vertex 29.25 63.999 3.501
    endloop
  endfacet
  facet normal 0 0 1
    outer loop
      vertex 29.25 61.998 3.501
      vertex 12.25 63.999 3.501
      vertex 12.25 61.998 3.501
    endloop
  endfacet
  facet normal 1 -0 0
    outer loop
      vertex 9 0 8.5
      vertex 9 56.499 7.2
      vertex 9 56.499 8.5
    endloop
  endfacet
  facet normal 1 0 0
    outer loop
      vertex 9 56.499 7.2
      vertex 9 0 8.5
      vertex 9 0 7.2
    endloop
  endfacet
  facet normal 1 -0 0
    outer loop
      vertex 9 19.998 5
      vertex 9 56.499 0
      vertex 9 56.499 5
    endloop
  endfacet
  facet normal 1 0 0
    outer loop
      vertex 9 56.499 0
      vertex 9 19.998 5
      vertex 9 19.998 0
    endloop
  endfacet
  facet normal 0 0 -1
    outer loop
      vertex 9 0 8.5
      vertex 12 56.499 8.5
      vertex 12 0 8.5
    endloop
  endfacet
  facet normal -0 0 -1
    outer loop
      vertex 12 56.499 8.5
      vertex 9 0 8.5
      vertex 9 56.499 8.5
    endloop
  endfacet
  facet normal -1 0 0
    outer loop
      vertex 12 0 7.2
      vertex 12 56.499 8.5
      vertex 12 56.499 7.2
    endloop
  endfacet
  facet normal -1 -0 0
    outer loop
      vertex 12 56.499 8.5
      vertex 12 0 7.2
      vertex 12 0 8.5
    endloop
  endfacet
  facet normal 0 -1 0
    outer loop
      vertex 9 56.499 7.2
      vertex 12 56.499 8.5
      vertex 9 56.499 8.5
    endloop
  endfacet
  facet normal 0 -1 -0
    outer loop
      vertex 12 56.499 8.5
      vertex 9 56.499 7.2
      vertex 12 56.499 7.2
    endloop
  endfacet
  facet normal 0 -1 0
    outer loop
      vertex 9 56.499 0
      vertex 11.999 56.499 5
      vertex 9 56.499 5
    endloop
  endfacet
  facet normal 0 -1 -0
    outer loop
      vertex 11.999 56.499 5
      vertex 9 56.499 0
      vertex 11.999 56.499 0
    endloop
  endfacet
  facet normal 1 -0 0
    outer loop
      vertex 29.5 0 8.5
      vertex 29.5 56.499 7.2
      vertex 29.5 56.499 8.5
    endloop
  endfacet
  facet normal 1 0 0
    outer loop
      vertex 29.5 56.499 7.2
      vertex 29.5 0 8.5
      vertex 29.5 0 7.2
    endloop
  endfacet
  facet normal 0 0 -1
    outer loop
      vertex 29.5 0 8.5
      vertex 32.5 56.499 8.5
      vertex 32.5 0 8.5
    endloop
  endfacet
  facet normal -0 0 -1
    outer loop
      vertex 32.5 56.499 8.5
      vertex 29.5 0 8.5
      vertex 29.5 56.499 8.5
    endloop
  endfacet
  facet normal -1 0 0
    outer loop
      vertex 32.5 0 7.2
      vertex 32.5 56.499 8.5
      vertex 32.5 56.499 7.2
    endloop
  endfacet
  facet normal -1 -0 0
    outer loop
      vertex 32.5 56.499 8.5
      vertex 32.5 0 7.2
      vertex 32.5 0 8.5
    endloop
  endfacet
  facet normal -1 0 0
    outer loop
      vertex 32.5 0 0
      vertex 32.5 56.499 5
      vertex 32.5 56.499 0
    endloop
  endfacet
  facet normal -1 -0 0
    outer loop
      vertex 32.5 56.499 5
      vertex 32.5 0 0
      vertex 32.5 0 5
    endloop
  endfacet
  facet normal 0 -1 0
    outer loop
      vertex 29.5 56.499 7.2
      vertex 32.5 56.499 8.5
      vertex 29.5 56.499 8.5
    endloop
  endfacet
  facet normal 0 -1 -0
    outer loop
      vertex 32.5 56.499 8.5
      vertex 29.5 56.499 7.2
      vertex 32.5 56.499 7.2
    endloop
  endfacet
  facet normal 0 -1 0
    outer loop
      vertex 29.501 56.499 0
      vertex 32.5 56.499 5
      vertex 29.501 56.499 5
    endloop
  endfacet
  facet normal 0 -1 -0
    outer loop
      vertex 32.5 56.499 5
      vertex 29.501 56.499 0
      vertex 32.5 56.499 0
    endloop
  endfacet
  facet normal 1 0 0
    outer loop
      vertex 11.999 61.499 5
      vertex 11.999 61.998 5.001
      vertex 11.999 61.499 5.001
    endloop
  endfacet
  facet normal 1 0 0
    outer loop
      vertex 11.999 61.998 5.001
      vertex 11.999 61.499 5
      vertex 11.999 61.998 0
    endloop
  endfacet
  facet normal 1 0 0
    outer loop
      vertex 11.999 56.499 0
      vertex 11.999 61.499 5
      vertex 11.999 56.499 5
    endloop
  endfacet
  facet normal 1 0 0
    outer loop
      vertex 11.999 61.499 5
      vertex 11.999 56.499 0
      vertex 11.999 61.998 0
    endloop
  endfacet
  facet normal 0 0 -1
    outer loop
      vertex 0 0 5.001
      vertex 8 19.998 5.001
      vertex 8 0 5.001
    endloop
  endfacet
  facet normal -0 0 -1
    outer loop
      vertex 8 19.998 5.001
      vertex 0 0 5.001
      vertex 0 19.998 5.001
    endloop
  endfacet
  facet normal 0 0 -1
    outer loop
      vertex 29.25 61.499 5.001
      vertex 29.501 61.998 5.001
      vertex 29.501 61.499 5.001
    endloop
  endfacet
  facet normal -0 0 -1
    outer loop
      vertex 29.501 61.998 5.001
      vertex 29.25 61.499 5.001
      vertex 29.25 61.998 5.001
    endloop
  endfacet
  facet normal 0 0 -1
    outer loop
      vertex 11.999 61.499 5.001
      vertex 12.25 61.998 5.001
      vertex 12.25 61.499 5.001
    endloop
  endfacet
  facet normal -0 0 -1
    outer loop
      vertex 12.25 61.998 5.001
      vertex 11.999 61.499 5.001
      vertex 11.999 61.998 5.001
    endloop
  endfacet
  facet normal -1 0 0
    outer loop
      vertex 29.501 61.998 0
      vertex 29.501 61.499 5
      vertex 29.501 61.998 5.001
    endloop
  endfacet
  facet normal -1 0 0
    outer loop
      vertex 29.501 56.499 0
      vertex 29.501 61.499 5
      vertex 29.501 61.998 0
    endloop
  endfacet
  facet normal -1 -0 0
    outer loop
      vertex 29.501 61.499 5
      vertex 29.501 56.499 0
      vertex 29.501 56.499 5
    endloop
  endfacet
  facet normal -1 -0 0
    outer loop
      vertex 29.501 61.998 5.001
      vertex 29.501 61.499 5
      vertex 29.501 61.499 5.001
    endloop
  endfacet
  facet normal 0 -1 0
    outer loop
      vertex 11.999 61.998 5.001
      vertex 12.25 61.998 3.501
      vertex 12.25 61.998 5.001
    endloop
  endfacet
  facet normal 0 -1 -0
    outer loop
      vertex 12.25 61.998 3.501
      vertex 11.999 61.998 0
      vertex 29.25 61.998 3.501
    endloop
  endfacet
  facet normal 0 -1 0
    outer loop
      vertex 11.999 61.998 0
      vertex 12.25 61.998 3.501
      vertex 11.999 61.998 5.001
    endloop
  endfacet
  facet normal 0 -1 0
    outer loop
      vertex 29.25 61.998 3.501
      vertex 29.501 61.998 5.001
      vertex 29.25 61.998 5.001
    endloop
  endfacet
  facet normal 0 -1 0
    outer loop
      vertex 29.25 61.998 3.501
      vertex 29.501 61.998 0
      vertex 29.501 61.998 5.001
    endloop
  endfacet
  facet normal 0 -1 0
    outer loop
      vertex 29.501 61.998 0
      vertex 29.25 61.998 3.501
      vertex 11.999 61.998 0
    endloop
  endfacet
  facet normal 0 -1 0
    outer loop
      vertex 0 19.998 5.001
      vertex 8 19.998 5
      vertex 8 19.998 5.001
    endloop
  endfacet
  facet normal 0 -1 0
    outer loop
      vertex 0 19.998 0
      vertex 8 19.998 5
      vertex 0 19.998 5.001
    endloop
  endfacet
  facet normal 0 -1 0
    outer loop
      vertex 9 19.998 0
      vertex 8 19.998 5
      vertex 0 19.998 0
    endloop
  endfacet
  facet normal 0 -1 0
    outer loop
      vertex 8 19.998 5
      vertex 9 19.998 0
      vertex 9 19.998 5
    endloop
  endfacet
  facet normal -1 0 0
    outer loop
      vertex 0 72 0
      vertex 0 38.1 22
      vertex 0 72 22
    endloop
  endfacet
  facet normal -1 0 0
    outer loop
      vertex 0 19.998 0
      vertex 0 38.1 22
      vertex 0 72 0
    endloop
  endfacet
  facet normal -1 0 0
    outer loop
      vertex 0 19.998 5.001
      vertex 0 38.1 22
      vertex 0 19.998 0
    endloop
  endfacet
  facet normal -1 0 0
    outer loop
      vertex 0 0 30
      vertex 0 38.1 22
      vertex 0 19.998 5.001
    endloop
  endfacet
  facet normal -1 0 0
    outer loop
      vertex 0 0 30
      vertex 0 19.998 5.001
      vertex 0 0 5.001
    endloop
  endfacet
  facet normal -1 0 0
    outer loop
      vertex 0 38.1 22
      vertex 0 0 30
      vertex 0 38.1 30
    endloop
  endfacet
  facet normal 0 0 1
    outer loop
      vertex 40 38.1 30
      vertex 27.2365 25.998 30
      vertex 40 0 30
    endloop
  endfacet
  facet normal -0 0 1
    outer loop
      vertex 0 38.1 30
      vertex 27.2365 25.998 30
      vertex 40 38.1 30
    endloop
  endfacet
  facet normal 0 0 1
    outer loop
      vertex 27.2365 25.998 30
      vertex 0 38.1 30
      vertex 10.2365 25.998 30
    endloop
  endfacet
  facet normal 0 0 1
    outer loop
      vertex 0 0 30
      vertex 10.2365 25.998 30
      vertex 0 38.1 30
    endloop
  endfacet
  facet normal 0 0 1
    outer loop
      vertex 10.2365 25.998 30
      vertex 0 0 30
      vertex 10.2365 0 30
    endloop
  endfacet
  facet normal 0 0 1
    outer loop
      vertex 40 0 30
      vertex 27.2365 25.998 30
      vertex 27.2365 0 30
    endloop
  endfacet
  facet normal 1 0 0
    outer loop
      vertex 40 38.1 30
      vertex 40 0 30
      vertex 40 38.1 22
    endloop
  endfacet
  facet normal 1 -0 0
    outer loop
      vertex 40 38.1 22
      vertex 40 72 0
      vertex 40 72 22
    endloop
  endfacet
  facet normal 1 0 0
    outer loop
      vertex 40 0 0
      vertex 40 38.1 22
      vertex 40 0 30
    endloop
  endfacet
  facet normal 1 0 0
    outer loop
      vertex 40 38.1 22
      vertex 40 0 0
      vertex 40 72 0
    endloop
  endfacet
  facet normal 0 0 -1
    outer loop
      vertex 9 19.998 0
      vertex 0 19.998 0
      vertex 9 56.499 0
    endloop
  endfacet
  facet normal 0 0 -1
    outer loop
      vertex 11.999 56.499 0
      vertex 9 56.499 0
      vertex 11.999 61.998 0
    endloop
  endfacet
  facet normal 0 0 -1
    outer loop
      vertex 32.5 56.499 0
      vertex 40 0 0
      vertex 32.5 0 0
    endloop
  endfacet
  facet normal 0 0 -1
    outer loop
      vertex 40 0 0
      vertex 32.5 56.499 0
      vertex 40 72 0
    endloop
  endfacet
  facet normal 0 0 -1
    outer loop
      vertex 29.501 61.998 0
      vertex 32.5 56.499 0
      vertex 29.501 56.499 0
    endloop
  endfacet
  facet normal 0 0 -1
    outer loop
      vertex 32.5 56.499 0
      vertex 29.501 61.998 0
      vertex 40 72 0
    endloop
  endfacet
  facet normal 0 0 -1
    outer loop
      vertex 11.999 61.998 0
      vertex 40 72 0
      vertex 29.501 61.998 0
    endloop
  endfacet
  facet normal 0 0 -1
    outer loop
      vertex 11.999 61.998 0
      vertex 0 72 0
      vertex 40 72 0
    endloop
  endfacet
  facet normal 0 0 -1
    outer loop
      vertex 9 56.499 0
      vertex 0 72 0
      vertex 11.999 61.998 0
    endloop
  endfacet
  facet normal 0 0 -1
    outer loop
      vertex 0 72 0
      vertex 9 56.499 0
      vertex 0 19.998 0
    endloop
  endfacet
  facet normal 0 -1 0
    outer loop
      vertex 32.5 0 5
      vertex 32.5 0 0
      vertex 33.5 0 5
    endloop
  endfacet
  facet normal 0 -1 0
    outer loop
      vertex 12 0 7.2
      vertex 29.5 0 8.5
      vertex 12 0 8.5
    endloop
  endfacet
  facet normal 0 -1 -0
    outer loop
      vertex 29.5 0 8.5
      vertex 12 0 7.2
      vertex 29.5 0 7.2
    endloop
  endfacet
  facet normal 0 -1 0
    outer loop
      vertex 7.2375 0 28
      vertex 10.2365 0 30
      vertex 0 0 30
    endloop
  endfacet
  facet normal 0 -1 0
    outer loop
      vertex 10.2365 0 30
      vertex 7.2375 0 28
      vertex 8.2365 0 28.201
    endloop
  endfacet
  facet normal 0 -1 0
    outer loop
      vertex 0 0 30
      vertex 7.2365 0 27.2
      vertex 7.2375 0 28
    endloop
  endfacet
  facet normal 0 -1 0
    outer loop
      vertex 0 0 30
      vertex 7.2365 0 25
      vertex 7.2365 0 27.2
    endloop
  endfacet
  facet normal 0 -1 0
    outer loop
      vertex 7.2365 0 25
      vertex 7.2375 0 22
      vertex 7.2375 0 25
    endloop
  endfacet
  facet normal 0 -1 0
    outer loop
      vertex 2.5 0 19.5
      vertex 7.2365 0 25
      vertex 0 0 30
    endloop
  endfacet
  facet normal 0 -1 0
    outer loop
      vertex 7.2375 0 22
      vertex 10.1905 0 21.501
      vertex 10.1905 0 22
    endloop
  endfacet
  facet normal 0 -1 0
    outer loop
      vertex 37.5 0 19.5
      vertex 10.1905 0 21.501
      vertex 2.5 0 19.5
    endloop
  endfacet
  facet normal 0 -1 -0
    outer loop
      vertex 7.2375 0 22
      vertex 2.5 0 19.5
      vertex 10.1905 0 21.501
    endloop
  endfacet
  facet normal 0 -1 -0
    outer loop
      vertex 7.2365 0 25
      vertex 2.5 0 19.5
      vertex 7.2375 0 22
    endloop
  endfacet
  facet normal 0 -1 0
    outer loop
      vertex 0 0 5.001
      vertex 2.5 0 19.5
      vertex 0 0 30
    endloop
  endfacet
  facet normal 0 -1 0
    outer loop
      vertex 12 0 8.5
      vertex 2.5 0 10.5
      vertex 9 0 8.5
    endloop
  endfacet
  facet normal 0 -1 0
    outer loop
      vertex 2.5 0 10.5
      vertex 8 0 7.2
      vertex 9 0 8.5
    endloop
  endfacet
  facet normal 0 -1 -0
    outer loop
      vertex 2.5 0 19.5
      vertex 0 0 5.001
      vertex 2.5 0 10.5
    endloop
  endfacet
  facet normal 0 -1 0
    outer loop
      vertex 0 0 5.001
      vertex 8 0 7.2
      vertex 2.5 0 10.5
    endloop
  endfacet
  facet normal 0 -1 -0
    outer loop
      vertex 8 0 7.2
      vertex 0 0 5.001
      vertex 8 0 5.001
    endloop
  endfacet
  facet normal 0 -1 -0
    outer loop
      vertex 10.2365 0 30
      vertex 8.2365 0 28.201
      vertex 10.2365 0 28.201
    endloop
  endfacet
  facet normal 0 -1 -0
    outer loop
      vertex 8.2365 0 28.201
      vertex 7.2375 0 28
      vertex 8.2365 0 28
    endloop
  endfacet
  facet normal 0 -1 -0
    outer loop
      vertex 7.2375 0 28
      vertex 7.2365 0 27.2
      vertex 7.2375 0 27.2
    endloop
  endfacet
  facet normal 0 -1 0
    outer loop
      vertex 30.1905 0 22
      vertex 30.1905 0 21.501
      vertex 33.1455 0 22
    endloop
  endfacet
  facet normal 0 -1 0
    outer loop
      vertex 32.1445 0 28.201
      vertex 27.2365 0 30
      vertex 27.2365 0 28.201
    endloop
  endfacet
  facet normal 0 -1 0
    outer loop
      vertex 27.2365 0 30
      vertex 32.1445 0 28.201
      vertex 40 0 30
    endloop
  endfacet
  facet normal 0 -1 0
    outer loop
      vertex 33.1455 0 28
      vertex 32.1445 0 28.201
      vertex 32.1445 0 28
    endloop
  endfacet
  facet normal 0 -1 0
    outer loop
      vertex 32.1445 0 28.201
      vertex 33.1455 0 28
      vertex 40 0 30
    endloop
  endfacet
  facet normal 0 -1 0
    outer loop
      vertex 33.1455 0 22
      vertex 40 0 30
      vertex 33.1455 0 28
    endloop
  endfacet
  facet normal 0 -1 0
    outer loop
      vertex 10.1905 0 21.501
      vertex 37.5 0 19.5
      vertex 30.1905 0 21.501
    endloop
  endfacet
  facet normal 0 -1 0
    outer loop
      vertex 37.5 0 19.5
      vertex 33.1455 0 22
      vertex 30.1905 0 21.501
    endloop
  endfacet
  facet normal 0 -1 0
    outer loop
      vertex 37.5 0 19.5
      vertex 40 0 30
      vertex 33.1455 0 22
    endloop
  endfacet
  facet normal 0 -1 0
    outer loop
      vertex 37.5 0 10.5
      vertex 40 0 30
      vertex 37.5 0 19.5
    endloop
  endfacet
  facet normal 0 -1 0
    outer loop
      vertex 2.5 0 10.5
      vertex 12 0 8.5
      vertex 37.5 0 10.5
    endloop
  endfacet
  facet normal 0 -1 0
    outer loop
      vertex 29.5 0 8.5
      vertex 37.5 0 10.5
      vertex 12 0 8.5
    endloop
  endfacet
  facet normal 0 -1 0
    outer loop
      vertex 32.5 0 8.5
      vertex 37.5 0 10.5
      vertex 29.5 0 8.5
    endloop
  endfacet
  facet normal 0 -1 0
    outer loop
      vertex 33.5 0 7.2
      vertex 32.5 0 8.5
      vertex 32.5 0 7.2
    endloop
  endfacet
  facet normal 0 -1 0
    outer loop
      vertex 32.5 0 8.5
      vertex 33.5 0 7.2
      vertex 37.5 0 10.5
    endloop
  endfacet
  facet normal 0 -1 0
    outer loop
      vertex 33.5 0 5
      vertex 37.5 0 10.5
      vertex 33.5 0 7.2
    endloop
  endfacet
  facet normal 0 -1 0
    outer loop
      vertex 40 0 0
      vertex 33.5 0 5
      vertex 32.5 0 0
    endloop
  endfacet
  facet normal 0 -1 0
    outer loop
      vertex 37.5 0 10.5
      vertex 40 0 0
      vertex 40 0 30
    endloop
  endfacet
  facet normal 0 -1 0
    outer loop
      vertex 33.5 0 5
      vertex 40 0 0
      vertex 37.5 0 10.5
    endloop
  endfacet
  facet normal 0 -1 -0
    outer loop
      vertex 9 0 8.5
      vertex 8 0 7.2
      vertex 9 0 7.2
    endloop
  endfacet
  facet normal 0 1 -0
    outer loop
      vertex 40 72 0
      vertex 0 72 22
      vertex 40 72 22
    endloop
  endfacet
  facet normal 0 1 0
    outer loop
      vertex 0 72 22
      vertex 40 72 0
      vertex 0 72 0
    endloop
  endfacet
  facet normal 1 -0 0
    outer loop
      vertex 2.5 0 19.5
      vertex 2.5 69.999 10.5
      vertex 2.5 69.999 19.5
    endloop
  endfacet
  facet normal 1 0 0
    outer loop
      vertex 2.5 69.999 10.5
      vertex 2.5 0 19.5
      vertex 2.5 0 10.5
    endloop
  endfacet
  facet normal 0 0 -1
    outer loop
      vertex 2.5 0 19.5
      vertex 37.5 69.999 19.5
      vertex 37.5 0 19.5
    endloop
  endfacet
  facet normal -0 0 -1
    outer loop
      vertex 37.5 69.999 19.5
      vertex 2.5 0 19.5
      vertex 2.5 69.999 19.5
    endloop
  endfacet
  facet normal -1 0 0
    outer loop
      vertex 37.5 0 10.5
      vertex 37.5 69.999 19.5
      vertex 37.5 69.999 10.5
    endloop
  endfacet
  facet normal -1 -0 0
    outer loop
      vertex 37.5 69.999 19.5
      vertex 37.5 0 10.5
      vertex 37.5 0 19.5
    endloop
  endfacet
  facet normal 0 -1 0
    outer loop
      vertex 2.5 69.999 10.5
      vertex 37.5 69.999 19.5
      vertex 2.5 69.999 19.5
    endloop
  endfacet
  facet normal 0 -1 -0
    outer loop
      vertex 37.5 69.999 19.5
      vertex 2.5 69.999 10.5
      vertex 37.5 69.999 10.5
    endloop
  endfacet
  facet normal -0 0 1
    outer loop
      vertex 2.5 69.999 10.5
      vertex 37.5 0 10.5
      vertex 37.5 69.999 10.5
    endloop
  endfacet
  facet normal 0 0 1
    outer loop
      vertex 37.5 0 10.5
      vertex 2.5 69.999 10.5
      vertex 2.5 0 10.5
    endloop
  endfacet
  facet normal -0 0 1
    outer loop
      vertex 0 72 22
      vertex 40 38.1 22
      vertex 40 72 22
    endloop
  endfacet
  facet normal 0 0 1
    outer loop
      vertex 40 38.1 22
      vertex 0 72 22
      vertex 0 38.1 22
    endloop
  endfacet
  facet normal 0 1 -0
    outer loop
      vertex 40 38.1 22
      vertex 0 38.1 30
      vertex 40 38.1 30
    endloop
  endfacet
  facet normal 0 1 0
    outer loop
      vertex 0 38.1 30
      vertex 40 38.1 22
      vertex 0 38.1 22
    endloop
  endfacet
endsolid OpenSCAD_Model
